VerilogHDL/2_Logica_combinacional/Ejercicios/problema_4.2/tests/testbench_circuito_nosimp_mnc_output.txt
testbench_circuito_nosimp_mnc
A B C D| F G
0 0 0 0| 0 1
0 0 0 1| 1 0
0 0 1 0| 0 1
0 0 1 1| 1 0
0 1 0 0| 0 1
0 1 0 1| 1 0
0 1 1 0| 0 1
0 1 1 1| 1 0
1 0 0 0| 0 0
1 0 0 1| 0 0
1 0 1 0| 0 0
1 0 1 1| 0 0
1 1 0 0| 0 0
1 1 0 1| 0 0
1 1 1 0| 1 1
1 1 1 1| 1 1
testbench_circuito_nosimp_mnc.v:30: $finish called at 160 (1s)
